% Generated by IEEEtran.bst, version: 1.14 (2015/08/26)
\begin{thebibliography}{1}
\providecommand{\url}[1]{#1}
\csname url@samestyle\endcsname
\providecommand{\newblock}{\relax}
\providecommand{\bibinfo}[2]{#2}
\providecommand{\BIBentrySTDinterwordspacing}{\spaceskip=0pt\relax}
\providecommand{\BIBentryALTinterwordstretchfactor}{4}
\providecommand{\BIBentryALTinterwordspacing}{\spaceskip=\fontdimen2\font plus
\BIBentryALTinterwordstretchfactor\fontdimen3\font minus
  \fontdimen4\font\relax}
\providecommand{\BIBforeignlanguage}[2]{{%
\expandafter\ifx\csname l@#1\endcsname\relax
\typeout{** WARNING: IEEEtran.bst: No hyphenation pattern has been}%
\typeout{** loaded for the language `#1'. Using the pattern for}%
\typeout{** the default language instead.}%
\else
\language=\csname l@#1\endcsname
\fi
#2}}
\providecommand{\BIBdecl}{\relax}
\BIBdecl

\bibitem{FSR}
\BIBentryALTinterwordspacing
\emph{FSR 400 Series Data Sheet}. [Online]. Available:
  \url{https://www.interlinkelectronics.com/datasheets/Datasheet_FSR.pdf}
\BIBentrySTDinterwordspacing

\bibitem{fritzing}
\BIBentryALTinterwordspacing
fritzing, ``fritzing beta,'' Aug 2016. [Online]. Available:
  \url{http://fritzing.org/}
\BIBentrySTDinterwordspacing

\bibitem{TimerOne}
\BIBentryALTinterwordspacing
Timerone. [Online]. Available: \url{http://labs.ideo.com}
\BIBentrySTDinterwordspacing

\bibitem{Serial}
\BIBentryALTinterwordspacing
Serial for unity. [Online]. Available:
  \url{https://github.com/prossel/UnitySerialPort/tree/master/Assets/Serial}
\BIBentrySTDinterwordspacing

\bibitem{source_control}
\BIBentryALTinterwordspacing
Ca3 magic carpet. [Online]. Available:
  \url{https://bitbucket.org/fionan_obrien/ca3_magic_carpet}
\BIBentrySTDinterwordspacing

\bibitem{Unity}
\BIBentryALTinterwordspacing
Unity 3d game engine. [Online]. Available: \url{https://unity3d.com/}
\BIBentrySTDinterwordspacing

\bibitem{dhalif}
\BIBentryALTinterwordspacing
A whole new world (guitar instrumental). [Online]. Available:
  \url{https://www.youtube.com/watch?v=Nm7qa8dV-IA}
\BIBentrySTDinterwordspacing

\end{thebibliography}
