\relax 
\providecommand\hyper@newdestlabel[2]{}
\providecommand\HyperFirstAtBeginDocument{\AtBeginDocument}
\HyperFirstAtBeginDocument{\ifx\hyper@anchor\@undefined
\global\let\oldcontentsline\contentsline
\gdef\contentsline#1#2#3#4{\oldcontentsline{#1}{#2}{#3}}
\global\let\oldnewlabel\newlabel
\gdef\newlabel#1#2{\newlabelxx{#1}#2}
\gdef\newlabelxx#1#2#3#4#5#6{\oldnewlabel{#1}{{#2}{#3}}}
\AtEndDocument{\ifx\hyper@anchor\@undefined
\let\contentsline\oldcontentsline
\let\newlabel\oldnewlabel
\fi}
\fi}
\global\let\hyper@last\relax 
\gdef\HyperFirstAtBeginDocument#1{#1}
\providecommand\HyField@AuxAddToFields[1]{}
\providecommand\HyField@AuxAddToCoFields[2]{}
\citation{FSR}
\citation{fritzing}
\citation{fritzing}
\citation{TimerOne}
\@writefile{toc}{\contentsline {section}{\numberline {I}Introduction}{1}{section.1}}
\@writefile{toc}{\contentsline {section}{\numberline {II}Design}{1}{section.2}}
\@writefile{toc}{\contentsline {section}{\numberline {III}Overall Architecture}{1}{section.3}}
\@writefile{toc}{\contentsline {subsection}{\numberline {\unhbox \voidb@x \hbox {III-A}}The Balance Board}{1}{subsection.3.1}}
\@writefile{lof}{\contentsline {figure}{\numberline {1}{\ignorespaces breadboard diagram using fritzing\cite  {fritzing}}}{1}{figure.1}}
\newlabel{fig:balboard}{{1}{1}{breadboard diagram using fritzing\cite {fritzing}}{figure.1}{}}
\@writefile{lof}{\contentsline {figure}{\numberline {2}{\ignorespaces circuit diagram using fritzing\cite  {fritzing}}}{1}{figure.2}}
\newlabel{fig:balboard}{{2}{1}{circuit diagram using fritzing\cite {fritzing}}{figure.2}{}}
\@writefile{toc}{\contentsline {subsection}{\numberline {\unhbox \voidb@x \hbox {III-B}}The Arduino}{1}{subsection.3.2}}
\citation{Serial}
\citation{source_control}
\@writefile{toc}{\contentsline {subsection}{\numberline {\unhbox \voidb@x \hbox {III-C}}Reading Serial Input}{2}{subsection.3.3}}
\@writefile{toc}{\contentsline {subsection}{\numberline {\unhbox \voidb@x \hbox {III-D}}The Game: Magic Carpet}{2}{subsection.3.4}}
\@writefile{lof}{\contentsline {figure}{\numberline {3}{\ignorespaces Magic Carpet welcome screen}}{2}{figure.3}}
\newlabel{fig:balboard}{{3}{2}{Magic Carpet welcome screen}{figure.3}{}}
\@writefile{toc}{\contentsline {section}{\numberline {IV}Implementation}{2}{section.4}}
\@writefile{toc}{\contentsline {subsection}{\numberline {\unhbox \voidb@x \hbox {IV-A}}Arduino microcontroller C code}{2}{subsection.4.1}}
\@writefile{lol}{\contentsline {lstlisting}{\numberline {1}"Reading FSR analog values and sending integer array via serial"}{2}{lstlisting.1}}
\@writefile{toc}{\contentsline {subsection}{\numberline {\unhbox \voidb@x \hbox {IV-B}}Magic Carpet CarpetPilot.cs Class}{3}{subsection.4.2}}
\@writefile{lol}{\contentsline {lstlisting}{\numberline {2}Read in Read in values}{3}{lstlisting.2}}
\@writefile{lol}{\contentsline {lstlisting}{\numberline {3}Update on Rotation}{3}{lstlisting.3}}
\@writefile{toc}{\contentsline {subsection}{\numberline {\unhbox \voidb@x \hbox {IV-C}}Controlling the Player Character (Magic Carpet)}{3}{subsection.4.3}}
\@writefile{lof}{\contentsline {figure}{\numberline {4}{\ignorespaces Magic Carpet indicating pressure on right \& down sensors}}{3}{figure.4}}
\newlabel{fig:balboard_indicating}{{4}{3}{Magic Carpet indicating pressure on right \& down sensors}{figure.4}{}}
\@writefile{toc}{\contentsline {subsection}{\numberline {\unhbox \voidb@x \hbox {IV-D}}How rotation is calculated}{3}{subsection.4.4}}
\citation{fritzing}
\citation{Unity}
\citation{Unity}
\citation{Serial}
\citation{TimerOne}
\citation{dhalif}
\@writefile{toc}{\contentsline {subsection}{\numberline {\unhbox \voidb@x \hbox {IV-E}}Tools \& Third party assets used}{4}{subsection.4.5}}
\@writefile{toc}{\contentsline {section}{\numberline {V}Testing}{4}{section.5}}
\@writefile{lol}{\contentsline {lstlisting}{\numberline {4}"Test generator"}{4}{lstlisting.4}}
\@writefile{toc}{\contentsline {section}{\numberline {VI}Discussion}{4}{section.6}}
\@writefile{toc}{\contentsline {subsection}{\numberline {\unhbox \voidb@x \hbox {VI-A}}Limitations}{4}{subsection.6.1}}
\@writefile{toc}{\contentsline {subsection}{\numberline {\unhbox \voidb@x \hbox {VI-B}}Future work}{4}{subsection.6.2}}
\bibstyle{IEEEtran}
\bibdata{ca3}
\bibcite{FSR}{1}
\bibcite{fritzing}{2}
\bibcite{TimerOne}{3}
\bibcite{Serial}{4}
\bibcite{source_control}{5}
\bibcite{Unity}{6}
\bibcite{dhalif}{7}
\@writefile{toc}{\contentsline {section}{\numberline {VII}Conclusion}{5}{section.7}}
\@writefile{toc}{\contentsline {section}{References}{5}{section*.1}}
